{
    "name": "HeatmapSessionRecording",
    "description": "Truly understand your visitors by seeing where they click, hover, type and scroll. Replay their actions in a video and ultimately increase conversions.",
    "version": "3.2.2",
    "theme": false,
    "require": {
        "piwik": ">=3.0.4-rc1,<4.0.0-b1"
    },
    "authors": [
        {
            "name": "InnoCraft",
            "email": "contact@innocraft.com",
            "homepage": "https:\/\/www.innocraft.com"
        }
    ],
    "price": {
        "base": 200
    },
    "archive": {
        "exclude": ["/tracker.js"]
    },
    "preview": {
        "video_url": "https://www.youtube.com/embed/AUSXjH8U9fk"
    },
    "homepage": "https:\/\/www.heatmap-analytics.com",
    "license": "InnoCraft EULA",
    "keywords": [
        "heatmap",
        "session recording",
        "session",
        "recording",
        "move",
        "scroll",
        "hover",
        "click",
        "user",
        "visitor",
        "video",
        "visit"
    ]
}
